…
You can retrieve whole data from your `GitStats` object with:

``` r
get_storage(git_stats)
#> $repositories
#> # A tibble: 99 × 19
#>    repo_id      repo_name               repo_fullpath default_branch stars forks
#>    <chr>        <chr>                   <chr>         <chr>          <int> <int>
#>  1 R_kgDOHNMr2w shinyGizmo              r-world-devs… dev               21     0
#>  2 R_kgDOHYNOFQ cohortBuilder           r-world-devs… dev                9     2
#>  3 R_kgDOHYNrJw shinyCohortBuilder      r-world-devs… dev               10     0
#>  4 R_kgDOHYNxtw cohortBuilder.db        r-world-devs… master             0     0
#>  5 R_kgDOIvtxsg GitStats                r-world-devs… master             8     2
#>  6 R_kgDOJAtHJA shinyTimelines          r-world-devs… master             3     0
#>  7 R_kgDOJKQ8Lg ROhdsiWebApi            r-world-devs… main               0     0
#>  8 R_kgDOJWYrCA hypothesis              r-world-devs… master             2     0
#>  9 R_kgDOMHUIwg useR2024-mastering-plu… r-world-devs… main               1     0
#> 10 R_kgDOMMESGQ dbplyr                  r-world-devs… main               0     0
#> # ℹ 89 more rows
#> # ℹ 13 more variables: created_at <dttm>, last_activity_at <dttm>,
#> #   languages <chr>, issues_open <int>, issues_closed <int>,
#> #   organization <chr>, repo_url <chr>, commit_sha <chr>, api_url <chr>,
#> #   githost <chr>, last_activity <drtn>, contributors <chr>,
#> #   contributors_n <int>
#> 
#> $commits
#> # A tibble: 4,557 × 11
#>    repo_name id    committed_date      author author_login author_name additions
#>    <chr>     <chr> <dttm>              <chr>  <chr>        <chr>           <int>
#>  1 cohortBu… C_kw… 2026-02-10 13:46:35 Dawid… syroBx       Dawid Bory…        31
#>  2 cohortBu… C_kw… 2026-02-10 13:42:27 Dawid… syroBx       Dawid Bory…       130
#>  3 cohortBu… C_kw… 2026-02-10 13:41:09 Dawid… syroBx       Dawid Bory…        25
#>  4 cohortBu… C_kw… 2025-05-02 10:45:58 Dawid… syroBx       Dawid Bory…       443
#>  5 cohortBu… C_kw… 2025-03-18 11:08:51 Adam … galachad     Adam Foryś          2
#>  6 cohortBu… C_kw… 2025-03-12 12:17:22 Adam … galachad     Adam Foryś         24
#>  7 cohortBu… C_kw… 2025-02-19 16:30:51 Adam … galachad     Adam Foryś         31
#>  8 cohortBu… C_kw… 2025-02-19 12:37:13 Dawid… syroBx       Dawid Bory…       404
#>  9 cohortBu… C_kw… 2025-02-18 16:20:50 Dawid… syroBx       Dawid Bory…        65
#> 10 cohortBu… C_kw… 2025-02-10 11:52:23 Adam … galachad     Adam Foryś         35
#> # ℹ 4,547 more rows
#> # ℹ 4 more variables: deletions <int>, organization <chr>, repo_url <chr>,
#> #   api_url <glue>
#> 
#> $users
#> NULL
#> 
#> $files
#> NULL
#> 
#> $repos_trees
#> NULL
#> 
#> $release_logs
#> # A tibble: 93 × 7
#>    repo_name   repo_url release_name release_tag published_at        release_url
#>    <chr>       <chr>    <chr>        <chr>       <dttm>              <chr>      
#>  1 cohortBuil… https:/… cohortBuild… v0.3.0      2024-09-27 11:35:06 https://gi…
#>  2 shinyCohor… https:/… v0.3.1       v0.3.1      2024-10-24 08:21:19 https://gi…
#>  3 shinyCohor… https:/… v0.3.0       v0.3.0      2024-10-24 08:20:32 https://gi…
#>  4 GitStats    https:/… GitStats 2.… v2.3.9      2026-01-12 07:52:20 https://gi…
#>  5 GitStats    https:/… GitStats 2.… v2.3.8      2025-12-08 07:58:49 https://gi…
#>  6 GitStats    https:/… GitStats 2.… v2.3.7      2025-10-16 07:24:36 https://gi…
#>  7 GitStats    https:/… GitStats 2.… v2.3.6      2025-09-17 07:46:45 https://gi…
#>  8 GitStats    https:/… GitStats 2.… v2.3.5      2025-08-19 05:40:37 https://gi…
#>  9 GitStats    https:/… GitStats 2.… v2.3.4      2025-07-08 13:33:50 https://gi…
#> 10 GitStats    https:/… GitStats 2.… v2.3.3      2025-06-03 08:06:26 https://gi…
#> # ℹ 83 more rows
#> # ℹ 1 more variable: release_log <chr>
…
Or particular data set:

``` r
get_storage(
  gitstats = git_stats,
  storage = "repositories"
)
#> # A tibble: 99 × 19
#>    repo_id      repo_name               repo_fullpath default_branch stars forks
#>    <chr>        <chr>                   <chr>         <chr>          <int> <int>
#>  1 R_kgDOHNMr2w shinyGizmo              r-world-devs… dev               21     0
#>  2 R_kgDOHYNOFQ cohortBuilder           r-world-devs… dev                9     2
#>  3 R_kgDOHYNrJw shinyCohortBuilder      r-world-devs… dev               10     0
#>  4 R_kgDOHYNxtw cohortBuilder.db        r-world-devs… master             0     0
#>  5 R_kgDOIvtxsg GitStats                r-world-devs… master             8     2
#>  6 R_kgDOJAtHJA shinyTimelines          r-world-devs… master             3     0
#>  7 R_kgDOJKQ8Lg ROhdsiWebApi            r-world-devs… main               0     0
#>  8 R_kgDOJWYrCA hypothesis              r-world-devs… master             2     0
#>  9 R_kgDOMHUIwg useR2024-mastering-plu… r-world-devs… main               1     0
#> 10 R_kgDOMMESGQ dbplyr                  r-world-devs… main               0     0
#> # ℹ 89 more rows
#> # ℹ 13 more variables: created_at <dttm>, last_activity_at <dttm>,
#> #   languages <chr>, issues_open <int>, issues_closed <int>,
#> #   organization <chr>, repo_url <chr>, commit_sha <chr>, api_url <chr>,
#> #   githost <chr>, last_activity <drtn>, contributors <chr>,
#> #   contributors_n <int>
```
…
