Get and store your data • GitStats
…
You can retrieve whole data from your GitStats object
with:

get_storage(git_stats)
#> $repositories
#> # A tibble: 88 × 18
#>    repo_id      repo_name        organization fullname platform repo_url api_url
#>    <chr>        <chr>            <chr>        <chr>    <chr>    <chr>    <chr>  
#>  1 R_kgDOHNMr2w shinyGizmo       r-world-devs r-world… github   https:/… https:…
#>  2 R_kgDOHYNOFQ cohortBuilder    r-world-devs r-world… github   https:/… https:…
#>  3 R_kgDOHYNrJw shinyCohortBuil… r-world-devs r-world… github   https:/… https:…
#>  4 R_kgDOHYNxtw cohortBuilder.db r-world-devs r-world… github   https:/… https:…
#>  5 R_kgDOIvtxsg GitStats         r-world-devs r-world… github   https:/… https:…
#>  6 R_kgDOJAtHJA shinyTimelines   r-world-devs r-world… github   https:/… https:…
#>  7 R_kgDOJKQ8Lg ROhdsiWebApi     r-world-devs r-world… github   https:/… https:…
#>  8 R_kgDOJWYrCA hypothesis       r-world-devs r-world… github   https:/… https:…
#>  9 R_kgDOMHUIwg useR2024-master… r-world-devs r-world… github   https:/… https:…
#> 10 R_kgDOMMESGQ dbplyr           r-world-devs r-world… github   https:/… https:…
#> # ℹ 78 more rows
#> # ℹ 11 more variables: created_at <dttm>, last_activity_at <dttm>,
#> #   last_activity <drtn>, default_branch <chr>, stars <int>, forks <int>,
#> #   languages <chr>, issues_open <int>, issues_closed <int>,
#> #   contributors <chr>, contributors_n <int>
#> 
#> $commits
#> # A tibble: 945 × 11
#>    id    committed_date      author author_login author_name additions deletions
#>    <chr> <dttm>              <chr>  <chr>        <chr>           <int>     <int>
#>  1 C_kw… 2024-11-04 11:44:11 Adam … galachad     Adam Foryś        334         1
#>  2 C_kw… 2024-11-04 07:35:28 Adam … galachad     Adam Foryś          1         1
#>  3 C_kw… 2024-10-31 21:17:25 Adam … galachad     Adam Foryś          0        13
#>  4 C_kw… 2024-10-31 15:45:38 Adam … galachad     Adam Foryś          1         1
#>  5 C_kw… 2024-10-31 15:31:16 Adam … galachad     Adam Foryś         12        12
#>  6 C_kw… 2024-10-31 15:09:42 Adam … galachad     Adam Foryś         40        36
#>  7 C_kw… 2024-10-31 12:24:19 Adam … galachad     Adam Foryś          0         1
#>  8 C_kw… 2024-10-31 11:12:54 Adam … galachad     Adam Foryś        129         0
#>  9 C_kw… 2024-10-31 11:12:30 Adam … galachad     Adam Foryś          1         1
#> 10 C_kw… 2024-10-31 09:41:39 Adam … galachad     Adam Foryś          5         1
#> # ℹ 935 more rows
#> # ℹ 4 more variables: repository <chr>, organization <chr>, repo_url <chr>,
#> #   api_url <glue>
#> 
#> $users
#> NULL
#> 
#> $files
#> NULL
#> 
#> $files_structure
#> NULL
#> 
#> $R_package_usage
#> NULL
#> 
#> $release_logs
#> # A tibble: 37 × 7
#>    repo_name   repo_url release_name release_tag published_at        release_url
#>    <chr>       <chr>    <chr>        <chr>       <dttm>              <chr>      
#>  1 cohortBuil… https:/… cohortBuild… v0.3.0      2024-09-27 11:35:06 https://gi…
#>  2 shinyCohor… https:/… v0.3.1       v0.3.1      2024-10-24 08:21:19 https://gi…
#>  3 shinyCohor… https:/… v0.3.0       v0.3.0      2024-10-24 08:20:32 https://gi…
#>  4 GitStats    https:/… GitStats 2.… v2.1.2      2024-11-13 10:27:51 https://gi…
#>  5 GitStats    https:/… GitStats 2.… v2.1.1      2024-10-29 07:46:43 https://gi…
#>  6 GitStats    https:/… 2.1.0        v2.1.0      2024-10-01 07:29:43 https://gi…
#>  7 GitStats    https:/… 2.0.2        v2.0.2      2024-07-19 07:59:12 https://gi…
#>  8 GitStats    https:/… 2.0.1        v2.0.1      2024-05-14 10:22:52 https://gi…
#>  9 GitStats    https:/… 1.1.0        v1.1.0      2024-01-08 10:14:13 https://gi…
#> 10 queryBuild… https:/… First relea… v0.1.0      2024-09-27 11:31:59 https://gi…
#> # ℹ 27 more rows
#> # ℹ 1 more variable: release_log <chr>
…
Or particular data set:

get_storage(
  gitstats_object = git_stats,
  storage = "repositories"
)
#> # A tibble: 88 × 18
#>    repo_id      repo_name        organization fullname platform repo_url api_url
#>    <chr>        <chr>            <chr>        <chr>    <chr>    <chr>    <chr>  
#>  1 R_kgDOHNMr2w shinyGizmo       r-world-devs r-world… github   https:/… https:…
#>  2 R_kgDOHYNOFQ cohortBuilder    r-world-devs r-world… github   https:/… https:…
#>  3 R_kgDOHYNrJw shinyCohortBuil… r-world-devs r-world… github   https:/… https:…
#>  4 R_kgDOHYNxtw cohortBuilder.db r-world-devs r-world… github   https:/… https:…
#>  5 R_kgDOIvtxsg GitStats         r-world-devs r-world… github   https:/… https:…
#>  6 R_kgDOJAtHJA shinyTimelines   r-world-devs r-world… github   https:/… https:…
#>  7 R_kgDOJKQ8Lg ROhdsiWebApi     r-world-devs r-world… github   https:/… https:…
#>  8 R_kgDOJWYrCA hypothesis       r-world-devs r-world… github   https:/… https:…
#>  9 R_kgDOMHUIwg useR2024-master… r-world-devs r-world… github   https:/… https:…
#> 10 R_kgDOMMESGQ dbplyr           r-world-devs r-world… github   https:/… https:…
#> # ℹ 78 more rows
#> # ℹ 11 more variables: created_at <dttm>, last_activity_at <dttm>,
#> #   last_activity <drtn>, default_branch <chr>, stars <int>, forks <int>,
#> #   languages <chr>, issues_open <int>, issues_closed <int>,
#> #   contributors <chr>, contributors_n <int>
…
